# Blender v2.79 (sub 0) OBJ File: 'desert.blend'
# www.blender.org
o Plane
v -20.609795 0.669734 20.605736
v 20.585079 0.355339 20.574549
v -20.568300 0.000000 -20.568300
v 20.567791 0.361745 -20.577152
v -20.590183 1.155719 -0.048360
v 0.031244 1.566887 20.579521
v 20.579844 0.225783 0.000826
v -0.008259 0.488393 -20.579350
v 0.013429 0.682403 -0.002351
v -20.618269 1.859249 10.306086
v 10.340034 1.529264 20.589514
v 20.621029 0.528332 -10.269547
v -10.285095 0.144445 -20.572464
v -20.581129 0.318941 -10.326427
v -10.292836 1.400378 20.592192
v 20.609797 0.657391 10.289603
v 10.279163 1.187440 -20.601439
v -0.000328 0.376022 -10.284916
v 0.066330 3.072776 10.290090
v -10.291471 2.397570 -0.029150
v 10.317122 1.662733 0.018206
v 10.363679 3.101909 10.324474
v -10.415176 6.397533 10.300116
v -10.277476 -0.090418 -10.294825
v 10.274426 3.116696 -10.253351
v -20.625040 1.401822 15.469549
v 15.477131 1.225122 20.591919
v 20.570463 0.397344 -15.435022
v -15.426244 0.003371 -20.568398
v -20.591089 0.673094 -5.206647
v -5.126155 1.407046 20.576668
v 20.595623 0.418869 5.143048
v 5.124316 1.149838 -20.601357
v -0.033886 1.423597 -15.449581
v 0.041359 2.015807 5.137139
v -15.523327 3.056564 -0.117406
v 5.168702 0.699966 0.006787
v -20.588543 1.631783 5.114979
v 5.191432 1.638363 20.584957
v 20.608385 0.322003 -5.126815
v -5.145761 0.273660 -20.575970
v -20.568779 0.011875 -15.427806
v -15.466705 1.196638 20.610359
v 20.608076 0.740064 15.439638
v 15.425415 0.934995 -20.589689
v -0.000358 0.038371 -5.141378
v 0.068518 3.099946 15.489552
v -5.142437 1.494459 -0.003336
v 15.462247 1.645896 0.006041
v 10.353732 2.281592 5.152968
v 10.360321 3.215812 15.486806
v 5.218469 2.829144 10.301507
v 15.513723 2.232335 10.311687
v -10.310895 3.793375 5.077642
v -10.337767 4.386423 15.477633
v -15.626779 4.738010 10.282747
v -5.038947 4.699895 10.252337
v -10.286300 0.407233 -15.440164
v -10.289055 0.759930 -5.150213
v -15.439245 0.501557 -10.327330
v -5.138719 -0.170214 -10.284923
v 10.279508 4.652524 -15.569361
v 10.281409 0.967453 -5.113463
v 5.106074 1.263052 -10.249995
v 15.539044 2.732402 -10.286051
v 15.479626 1.224908 -5.110146
v 5.141456 0.168309 -5.134407
v 5.058805 3.225976 -15.520459
v -5.146756 0.055784 -5.136304
v -15.486791 2.046935 -5.251235
v -15.426950 0.058050 -15.429088
v -5.117773 3.347170 15.437075
v -15.518341 2.981338 15.478801
v -15.534010 3.320363 5.027538
v 15.515615 2.456868 15.480810
v 5.214561 2.975651 15.456590
v 5.208006 1.760260 5.147155
v 15.497092 1.995952 5.138475
v -5.128373 3.055517 5.119094
v -5.155222 0.811446 -15.444177
v 15.499835 2.689364 -15.488724
v -20.621174 1.021267 18.040817
v 18.032244 0.803810 20.584469
v 20.567719 0.411585 -18.007288
v -17.997263 0.000000 -20.568300
v -20.593714 0.921741 -2.633950
v -2.548503 1.485814 20.577303
v 20.586342 0.306566 2.570941
v 2.559052 0.775475 -20.587435
v -0.032320 1.215644 -18.018555
v 0.026468 1.369476 2.566007
v -18.075943 2.449861 -0.100381
v 2.591937 0.631758 0.000581
v -20.602024 1.802033 7.707390
v 7.766744 1.612771 20.587261
v 20.627468 0.474068 -7.692600
v -7.715213 0.227734 -20.574844
v -20.572699 0.109088 -12.869707
v -12.883745 1.359442 20.605038
v 20.611013 0.722157 12.864958
v 12.855380 1.074956 -20.594072
v -0.001001 0.092432 -7.711369
v 0.069227 3.165596 12.866528
v -7.717684 2.081929 -0.010917
v 12.893856 2.031355 0.013795
v 10.338219 2.142493 2.586694
v 10.362455 3.405669 12.913754
v 2.649338 2.868953 10.294394
v 12.945078 2.947766 10.322803
v -10.295868 3.226039 2.514052
v -10.394068 6.009560 12.896828
v -18.111752 3.001163 10.291986
v -7.740939 5.615030 10.294271
v -10.287219 0.445172 -18.010117
v -10.281212 0.247725 -7.726015
v -18.012463 0.409860 -10.333445
v -7.705918 -0.287404 -10.288491
v 10.270669 2.947619 -18.107824
v 10.267015 1.440940 -7.658824
v 2.567152 0.690440 -10.283454
v 12.929095 3.433829 -10.274781
v -20.625296 1.722363 12.892756
v 12.912515 1.453342 20.593210
v 20.590244 0.442274 -12.855387
v -12.855453 0.046940 -20.569651
v -20.586161 0.465494 -7.769972
v -7.705792 1.381241 20.581017
v 20.604683 0.558392 7.715987
v 7.697536 1.284341 -20.608316
v -0.019790 1.025575 -12.863874
v 0.054709 2.578387 7.710382
v -12.900571 2.727650 -0.074493
v 7.741016 1.050625 0.017479
v -20.585133 1.400868 2.534583
v 2.612242 1.617237 20.582115
v 20.585430 0.212941 -2.565034
v -2.576956 0.342911 -20.576742
v -20.568300 0.000000 -17.997263
v -18.041885 0.950789 20.610106
v 20.598518 0.609197 18.009302
v 17.995901 0.688023 -20.583944
v 0.004921 0.247585 -2.572799
v 0.047961 2.329448 18.035240
v -2.564285 0.847753 -0.004263
v 18.025208 0.850839 -0.000401
v 10.361936 2.494468 7.730454
v 10.353810 2.434583 18.041605
v 7.786934 2.921646 10.312026
v 18.067863 1.383160 10.297478
v -10.370125 5.221920 7.683002
v -10.308772 2.511922 18.033901
v -13.057817 6.047292 10.297312
v -2.419816 3.874825 10.264964
v -10.280697 0.018967 -12.866238
v -10.291913 1.449824 -2.582793
v -12.857874 0.270068 -10.306599
v -2.571097 0.057376 -10.283103
v 10.293248 4.770253 -12.940165
v 10.296675 1.090078 -2.551668
v 7.662467 1.962611 -10.239187
v 18.090261 1.494213 -10.270843
v 15.541657 1.891819 -7.646000
v 15.454153 1.250080 -2.557161
v 12.868953 1.177944 -5.122046
v 18.054047 0.672631 -5.120378
v 5.123468 0.456213 -7.686062
v 5.152580 0.323202 -2.565655
v 2.573131 0.063043 -5.141506
v 7.705737 0.507928 -5.117581
v 5.080920 2.364224 -18.079283
v 5.069610 2.627493 -12.887215
v 2.516317 2.206399 -15.471592
v 7.639315 4.244194 -15.560900
v -5.141702 -0.162726 -7.711991
v -5.146053 0.635317 -2.564600
v -7.715762 0.294937 -5.137593
v -2.574681 0.002781 -5.139123
v -15.455146 1.150138 -7.787529
v -15.514259 2.724956 -2.695633
v -18.053009 1.590535 -5.246274
v -12.879779 1.328721 -5.200282
v -15.426407 0.032222 -17.998184
v -15.429122 0.212979 -12.876657
v -17.998003 0.018614 -15.428667
v -12.856358 0.227645 -15.433567
v -5.079278 4.422610 12.881365
v -5.121486 2.121300 18.003454
v -7.719301 4.097154 15.455692
v -2.524602 2.995599 15.439857
v -15.599543 4.395545 12.896507
v -15.479832 1.854823 18.045639
v -18.062330 1.964538 15.471262
v -12.954823 4.060630 15.487426
v -15.526217 3.194636 2.444542
v -15.592566 4.105671 7.651545
v -18.068502 2.533913 5.067449
v -12.945981 3.707342 5.034034
v 15.520579 2.606605 12.905970
v 15.499889 1.849684 18.037075
v 12.945176 3.045724 15.491705
v 18.068043 1.569218 15.458967
v 5.218095 3.177444 12.883474
v 5.205929 2.292863 18.021374
v 2.646464 2.911608 15.454666
v 7.782378 3.026577 15.469651
v 5.191238 1.228191 2.576968
v 5.216347 2.241088 7.720625
v 2.628468 1.909542 5.142230
v 7.780948 1.922111 5.152763
v 15.482664 1.962636 2.569720
v 15.506646 1.978356 7.720707
v 12.929743 2.447028 5.144469
v 18.050879 1.102971 5.137991
v -5.135321 2.394853 2.553000
v -5.073516 3.988959 7.657125
v -7.710528 3.642132 5.104845
v -2.545952 2.290862 5.130488
v -5.153260 0.735893 -18.015814
v -5.143770 0.233372 -12.863809
v -7.718570 0.627242 -15.444816
v -2.595952 1.052038 -15.443896
v 15.444988 1.466761 -18.036613
v 15.539194 3.319325 -12.898826
v 12.929280 4.144711 -15.536122
v 18.024677 1.223031 -15.452418
v 18.070566 1.657345 -12.868369
v 12.955787 4.565168 -12.934587
v 12.880364 2.231649 -18.067127
v -2.584718 0.651639 -12.859282
v -7.710027 0.094482 -12.867163
v -7.719087 0.632786 -18.015196
v -2.531197 3.029999 7.700507
v -7.721306 4.598285 7.692859
v -7.712848 3.066326 2.539378
v 18.060751 1.186542 7.716119
v 12.939935 2.548199 7.727065
v 12.914333 2.381222 2.578064
v 7.787898 2.345406 7.726951
v 2.642975 2.426061 7.707908
v 2.610933 1.273992 2.570915
v 7.776745 2.336994 18.029924
v 2.633114 2.321965 18.019918
v 2.650934 3.083334 12.873526
v 18.052990 1.228745 18.023415
v 12.934159 2.336959 18.047045
v 12.946939 3.255280 12.916090
v -13.025384 5.059330 7.657016
v -18.088259 2.792841 7.674197
v -18.068869 2.482622 2.481307
v -12.902576 2.337723 18.046061
v -18.051725 1.406556 18.043379
v -18.092840 2.618940 12.892050
v -2.539289 2.248058 18.038801
v -7.710276 2.322117 18.014189
v -7.734748 5.384693 12.884345
v -12.855585 0.079886 -12.864951
v -18.003084 0.144357 -12.874389
v -17.997263 0.000082 -17.997265
v -12.890723 2.028232 -2.634711
v -18.077230 2.256093 -2.689428
v -18.025789 0.850873 -7.788237
v -2.570911 0.265928 -2.570045
v -7.718418 1.081921 -2.567616
v -7.708504 -0.229553 -7.715584
v 7.638646 4.011894 -12.918829
v 2.541390 1.523529 -12.874629
v 2.525558 1.715386 -18.038645
v 7.722114 0.620092 -2.555425
v 2.579743 0.240965 -2.570306
v 2.569898 0.196124 -7.711214
v 18.029320 0.640838 -2.561229
v 12.874862 1.468424 -2.552623
v 12.875789 2.014766 -7.582374
v 18.082430 1.015113 -7.687230
v 7.680929 0.804010 -7.662448
v 7.654683 2.946029 -18.110731
v -2.573081 -0.013945 -7.710366
v -12.866067 0.702437 -7.754880
v -12.856392 0.209512 -18.003294
v -2.436344 3.816963 12.896804
v -13.044393 5.836154 12.903225
v -12.918382 3.288101 2.464380
v 18.073719 1.653702 12.884079
v 7.785335 3.218286 12.897265
v 7.764200 1.568309 2.586104
v 18.037804 1.042040 2.566033
v -2.555484 1.592934 2.560824
v -2.595074 0.945946 -18.019089
v 17.999752 0.846071 -18.017756
vt 0.501167 0.447490
vt 0.440919 0.507653
vt 0.440468 0.446743
vt 0.069288 0.072097
vt 0.130793 0.010762
vt 0.132015 0.073032
vt 0.007116 0.984338
vt 0.069692 0.924296
vt 0.069090 0.984915
vt 0.996708 0.450202
vt 0.932487 0.509058
vt 0.933114 0.448799
vt 0.561884 0.447770
vt 0.621558 0.508346
vt 0.561347 0.508429
vt 0.142660 0.202496
vt 0.074370 0.256817
vt 0.072867 0.196000
vt 0.258727 0.683784
vt 0.196014 0.743046
vt 0.196264 0.682165
vt 0.627350 0.080688
vt 0.564243 0.141898
vt 0.565309 0.079461
vt 0.867776 0.629560
vt 0.802871 0.690764
vt 0.803627 0.628042
vt 0.320313 0.685409
vt 0.380487 0.744740
vt 0.319859 0.744529
vt 0.568843 0.930119
vt 0.627707 0.994832
vt 0.565479 0.993867
vt 0.689831 0.997139
vt 0.631470 0.929919
vt 0.692005 0.928358
vt 0.440993 0.567548
vt 0.501016 0.626366
vt 0.440860 0.626496
vt 0.998672 0.148017
vt 0.933812 0.207502
vt 0.934597 0.147449
vt 0.131829 0.924917
vt 0.500096 0.263970
vt 0.438482 0.324764
vt 0.436697 0.262961
vt 0.869514 0.206326
vt 0.809057 0.146885
vt 0.870616 0.147234
vt 0.008017 0.255243
vt 0.072198 0.317631
vt 0.007255 0.316653
vt 0.805137 0.566632
vt 0.744736 0.505871
vt 0.806337 0.505150
vt 0.869976 0.387418
vt 0.807143 0.445637
vt 0.807852 0.386454
vt 0.258287 0.562301
vt 0.317553 0.501061
vt 0.319111 0.563703
vt 0.318646 0.927531
vt 0.379375 0.989965
vt 0.317316 0.988674
vt 0.254951 0.208013
vt 0.202439 0.258180
vt 0.202821 0.208040
vt 0.872377 0.934957
vt 0.813999 0.997886
vt 0.810213 0.933678
vt 0.864595 0.871629
vt 0.801913 0.867638
vt 0.995393 0.811787
vt 0.929132 0.752781
vt 0.994270 0.751246
vt 0.928346 0.812923
vt 0.932233 0.873233
vt 0.380689 0.928462
vt 0.319465 0.866928
vt 0.381394 0.867539
vt 0.506505 0.868227
vt 0.567109 0.805922
vt 0.571208 0.868620
vt 0.442853 0.806232
vt 0.443610 0.868002
vt 0.377318 0.382667
vt 0.316227 0.439282
vt 0.316294 0.380246
vt 0.501078 0.386574
vt 0.562519 0.325958
vt 0.562254 0.386712
vt 0.439896 0.385936
vt 0.378998 0.504081
vt 0.380211 0.565759
vt 0.684052 0.447136
vt 0.682406 0.507460
vt 0.868288 0.568023
vt 0.932471 0.569534
vt 0.935283 0.328512
vt 0.934445 0.388748
vt 0.868215 0.506815
vt 0.622656 0.448151
vt 0.623480 0.387459
vt 0.746653 0.326173
vt 0.746468 0.386368
vt 0.624035 0.326666
vt 0.684759 0.387124
vt 0.620677 0.567519
vt 0.626257 0.143118
vt 0.563417 0.203161
vt 0.750535 0.084428
vt 0.748785 0.145914
vt 0.689086 0.082225
vt 0.687803 0.144194
vt 0.624563 0.264881
vt 0.256435 0.439109
vt 0.195468 0.499476
vt 0.195123 0.439567
vt 0.871460 0.327267
vt 0.935056 0.268081
vt 0.873764 0.086573
vt 0.808374 0.326138
vt 0.871058 0.266629
vt 0.133935 0.379424
vt 0.070661 0.439164
vt 0.070527 0.378760
vt 0.256559 0.379808
vt 0.314445 0.319091
vt 0.137979 0.316754
vt 0.195779 0.379796
vt 0.132691 0.557428
vt 0.071466 0.499031
vt 0.133236 0.498555
vt 0.135551 0.138016
vt 0.070630 0.133884
vt 0.256112 0.075370
vt 0.314443 0.144165
vt 0.256186 0.145946
vt 0.194607 0.074864
vt 0.198355 0.144367
vt 0.143032 0.258325
vt 0.373963 0.202370
vt 0.376553 0.139349
vt 0.501868 0.140211
vt 0.378969 0.073535
vt 0.439048 0.138962
vt 0.373721 0.261673
vt 0.375694 0.321651
vt 0.132451 0.864110
vt 0.070170 0.863640
vt 0.257334 0.865885
vt 0.319584 0.805148
vt 0.132913 0.803250
vt 0.194966 0.864878
vt 0.132879 0.680030
vt 0.070799 0.619047
vt 0.132521 0.617302
vt 0.258691 0.623218
vt 0.320018 0.625220
vt 0.195948 0.560227
vt 0.196214 0.621087
vt 0.070220 0.742619
vt 0.132836 0.742345
vt 0.380542 0.626209
vt 0.501007 0.567658
vt 0.560845 0.626055
vt 0.380916 0.805333
vt 0.635260 0.869136
vt 0.748303 0.816797
vt 0.748530 0.866988
vt 0.693457 0.814581
vt 0.695121 0.868227
vt 0.620621 0.683382
vt 0.620192 0.625671
vt 0.742512 0.566808
vt 0.741209 0.626531
vt 0.679841 0.625559
vt 0.623366 0.743500
vt 0.630915 0.809067
vt 0.862907 0.755851
vt 0.859587 0.814205
vt 0.932237 0.630034
vt 0.802706 0.757737
vt 0.744199 0.753732
vt 0.502680 0.744535
vt 0.561462 0.684358
vt 0.563270 0.743798
vt 0.258598 0.743988
vt 0.257928 0.804478
vt 0.195664 0.803836
vt 0.562769 0.264455
vt 0.310299 0.259826
vt 0.254146 0.258233
vt 0.257144 0.500073
vt 0.198630 0.314778
vt 0.747087 0.264444
vt 0.807742 0.205425
vt 0.808028 0.264961
vt 0.685299 0.326483
vt 0.501152 0.508254
vt 0.504902 0.806205
vt 0.868544 0.446894
vt 0.006730 0.071630
vt 0.068477 0.010762
vt 0.070025 0.681281
vt 0.006212 0.377936
vt 0.004937 0.438985
vt 0.503029 0.077559
vt 0.566475 0.016824
vt 0.680870 0.567180
vt 0.441348 0.744780
vt 0.008122 0.194057
vt 0.752590 0.021191
vt 0.811707 0.086167
vt 0.560916 0.567612
vt 0.004537 0.561365
vt 0.072097 0.558326
vt 0.008096 0.863251
vt 0.070362 0.803145
vt 0.255469 0.315060
vt 0.007483 0.132831
vt 0.685963 0.264901
vt 0.500712 0.325626
vt 0.690571 0.019818
vt 0.440814 0.075296
vt 0.740183 0.686462
vt 0.682902 0.744992
vt 0.679404 0.683058
vt 0.442873 0.929138
vt 0.503396 0.992691
vt 0.441398 0.991303
vt 0.686775 0.204317
vt 0.876501 0.025068
vt 0.936595 0.086987
vt 0.750017 0.929152
vt 0.866540 0.692413
vt 0.746264 0.445748
vt 0.875421 0.995729
vt 0.935112 0.933749
vt 0.937044 0.993845
vt 0.998043 0.329424
vt 0.814578 0.023270
vt 0.006086 0.622061
vt 0.007359 0.682500
vt 0.311009 0.205648
vt 0.194169 0.925715
vt 0.256528 0.926599
vt 0.441020 0.685448
vt 0.380512 0.685560
vt 0.317447 0.073961
vt 0.752161 0.998864
vt 0.625315 0.203756
vt 0.500541 0.202458
vt 0.436993 0.201960
vt 0.504320 0.014958
vt 0.377607 0.442584
vt 0.747635 0.204734
vt 0.938690 0.026145
vt 0.999469 0.087604
vt 0.007666 0.923780
vt 0.931336 0.691232
vt 0.997448 0.932248
vt 0.255802 0.009968
vt 0.008033 0.742809
vt 0.133512 0.439518
vt 0.505615 0.929713
vt 0.501493 0.685078
vt 0.628567 0.018436
vt 0.004012 0.500178
vt 0.995647 0.510420
vt 0.800191 0.816235
vt 0.994052 0.690908
vt 0.994348 0.630642
vt 0.996396 0.872152
vt 0.255240 0.987484
vt 0.193151 0.986453
vt 0.998373 0.268998
vt 0.442211 0.012905
vt 0.193193 0.010495
vt 0.998554 0.208516
vt 0.318188 0.010020
vt 0.994819 0.570525
vt 0.008251 0.802934
vt 0.997584 0.389857
vt 0.131093 0.985596
vt 0.006262 0.010698
vt 1.000917 0.027133
vt 0.998973 0.992258
vt 0.380190 0.011058
vn 0.0558 0.9663 -0.2512
vn 0.1386 0.9562 -0.2575
vn 0.1814 0.9452 -0.2713
vn -0.1560 0.9687 0.1928
vn -0.0958 0.9686 0.2294
vn -0.1797 0.9328 0.3123
vn 0.0000 1.0000 0.0000
vn -0.0066 1.0000 -0.0040
vn -0.0034 1.0000 -0.0028
vn 0.2670 0.9625 -0.0473
vn 0.2628 0.9616 -0.0793
vn 0.3001 0.9522 -0.0564
vn 0.0217 0.9715 -0.2361
vn -0.0710 0.9811 -0.1799
vn -0.0016 0.9802 -0.1978
vn -0.4986 0.8152 0.2946
vn -0.4848 0.8745 0.0103
vn -0.4354 0.8773 0.2016
vn 0.1716 0.9712 -0.1651
vn 0.0996 0.9894 -0.1058
vn 0.1659 0.9648 -0.2038
vn -0.0043 0.9679 0.2513
vn 0.0238 0.9892 0.1448
vn 0.0139 0.9679 0.2508
vn 0.1239 0.9849 0.1211
vn -0.0537 0.9239 0.3789
vn -0.0634 0.9918 0.1106
vn 0.0764 0.9914 -0.1065
vn -0.0615 0.9952 0.0762
vn 0.0152 0.9980 0.0620
vn -0.2153 0.9404 -0.2632
vn -0.1167 0.9045 -0.4101
vn -0.1412 0.9349 -0.3255
vn -0.0495 0.8464 -0.5301
vn -0.2199 0.9013 -0.3732
vn -0.1195 0.8667 -0.4843
vn 0.0623 0.9840 -0.1667
vn -0.0125 0.9993 -0.0361
vn -0.0065 0.9979 -0.0640
vn 0.3008 0.9524 0.0504
vn 0.3351 0.9413 -0.0400
vn 0.3072 0.9472 0.0919
vn -0.0324 0.9993 -0.0154
vn 0.1709 0.9760 -0.1353
vn 0.2628 0.9223 -0.2832
vn 0.2921 0.9467 -0.1357
vn 0.2965 0.9544 -0.0345
vn 0.1419 0.9745 0.1736
vn 0.2720 0.9517 0.1424
vn -0.3818 0.9239 0.0222
vn -0.4006 0.9106 -0.1015
vn -0.3594 0.9318 -0.0508
vn -0.0222 0.9874 -0.1565
vn -0.1816 0.9634 -0.1970
vn 0.0109 0.9838 -0.1789
vn 0.2463 0.9691 -0.0102
vn 0.0392 0.9958 -0.0824
vn 0.0659 0.9973 -0.0324
vn 0.1721 0.9377 -0.3019
vn 0.1690 0.9208 -0.3514
vn 0.1601 0.9357 -0.3144
vn -0.0536 0.9953 -0.0800
vn -0.0276 0.9846 -0.1723
vn -0.0350 0.9886 -0.1463
vn 0.0765 0.9425 0.3253
vn -0.2724 0.9531 -0.1315
vn -0.2640 0.9106 0.3177
vn 0.2595 0.9166 -0.3041
vn 0.1028 0.9260 -0.3633
vn 0.2468 0.8308 -0.4988
vn 0.4579 0.8265 -0.3273
vn 0.3057 0.8824 -0.3576
vn 0.3828 0.9229 -0.0398
vn 0.3909 0.9130 0.1167
vn 0.3197 0.9470 0.0311
vn 0.4724 0.8804 -0.0414
vn 0.3860 0.9072 -0.1674
vn -0.0580 0.9926 -0.1067
vn -0.0703 0.9922 0.1023
vn -0.0894 0.9923 0.0852
vn -0.1937 0.9804 0.0363
vn -0.2753 0.9191 0.2819
vn -0.3228 0.9464 0.0117
vn -0.1388 0.9702 0.1987
vn -0.1137 0.9922 0.0512
vn 0.2574 0.9255 -0.2777
vn 0.1553 0.9465 -0.2828
vn 0.1373 0.9496 -0.2816
vn 0.0717 0.9708 -0.2289
vn 0.0555 0.9798 -0.1919
vn 0.0452 0.9760 -0.2128
vn 0.1996 0.9461 -0.2550
vn 0.2221 0.9221 -0.3168
vn 0.1539 0.9524 -0.2631
vn -0.1653 0.9714 -0.1704
vn -0.1726 0.9676 -0.1842
vn 0.1533 0.9846 -0.0843
vn 0.2042 0.9786 -0.0259
vn 0.2765 0.9600 -0.0438
vn 0.2936 0.9555 -0.0295
vn 0.2184 0.9661 -0.1377
vn -0.0508 0.9773 -0.2056
vn -0.0107 0.9827 -0.1848
vn -0.0360 0.9896 -0.1392
vn -0.0945 0.9927 -0.0741
vn 0.0114 0.9793 -0.2018
vn -0.1071 0.9843 -0.1406
vn -0.0741 0.9922 -0.1004
vn -0.0232 0.9857 0.1666
vn 0.0114 0.9999 -0.0074
vn -0.0020 0.9519 0.3063
vn -0.0054 0.9828 0.1843
vn -0.0195 0.9615 0.2740
vn -0.0425 0.9841 0.1721
vn -0.0096 0.9863 -0.1645
vn 0.0494 0.9684 -0.2444
vn 0.1106 0.9706 -0.2138
vn -0.0178 0.9845 -0.1746
vn 0.2537 0.9661 -0.0477
vn 0.3004 0.9505 -0.0796
vn 0.2074 0.9507 0.2305
vn 0.1054 0.9904 -0.0891
vn 0.2876 0.9504 -0.1179
vn -0.2278 0.9614 -0.1542
vn -0.3292 0.9439 -0.0262
vn -0.3211 0.9455 -0.0534
vn 0.0328 0.9429 -0.3315
vn 0.2043 0.9128 -0.3536
vn -0.3892 0.8853 -0.2543
vn -0.1009 0.9491 -0.2983
vn 0.0154 0.9794 -0.2013
vn -0.3365 0.9397 -0.0612
vn -0.0535 0.9944 -0.0906
vn -0.3535 0.8386 0.4143
vn -0.2759 0.9327 0.2322
vn 0.0037 0.8706 0.4920
vn 0.1770 0.8498 0.4965
vn 0.0175 0.8318 0.5548
vn -0.1305 0.8867 0.4435
vn -0.2261 0.8068 0.5459
vn -0.5025 0.8618 -0.0688
vn 0.2773 0.9295 0.2430
vn 0.1770 0.8917 0.4165
vn 0.0071 0.9885 0.1509
vn 0.0245 0.9393 0.3422
vn 0.0582 0.9577 0.2816
vn 0.2991 0.9495 -0.0942
vn 0.2689 0.9138 -0.3044
vn -0.0402 0.9986 -0.0349
vn -0.0101 0.9995 -0.0293
vn -0.0729 0.9936 0.0862
vn -0.0339 0.9872 0.1559
vn 0.0030 0.9979 -0.0645
vn -0.0417 0.9989 0.0219
vn 0.0342 0.9617 -0.2720
vn -0.2641 0.9321 -0.2478
vn 0.0450 0.9549 -0.2934
vn 0.1837 0.9550 -0.2328
vn 0.1421 0.9619 -0.2334
vn 0.2239 0.9377 -0.2658
vn 0.2252 0.9404 -0.2546
vn -0.0456 0.9915 -0.1216
vn 0.0280 0.9866 -0.1606
vn 0.0561 0.9868 -0.1518
vn 0.0033 0.9924 -0.1225
vn -0.0352 0.9994 -0.0063
vn -0.0989 0.9762 0.1928
vn -0.3673 0.9261 -0.0865
vn -0.0806 0.9715 0.2230
vn 0.0178 0.9520 -0.3055
vn -0.3453 0.8762 0.3361
vn -0.2535 0.9425 -0.2176
vn -0.1245 0.9750 0.1840
vn -0.0855 0.9960 0.0258
vn -0.1597 0.9783 -0.1317
vn -0.1375 0.9886 0.0603
vn -0.1513 0.9879 0.0345
vn -0.2336 0.9007 0.3663
vn -0.3818 0.8549 0.3513
vn 0.3334 0.9079 0.2539
vn 0.4760 0.8791 0.0250
vn 0.1852 0.9803 0.0676
vn 0.1151 0.8979 0.4248
vn -0.2184 0.8244 0.5221
vn -0.1127 0.9764 0.1840
vn -0.0809 0.9906 0.1102
vn -0.1604 0.9544 0.2515
vn 0.1076 0.9940 -0.0169
vn 0.0002 0.9975 0.0700
vn 0.0376 0.9992 -0.0084
vn 0.0445 0.9907 -0.1285
vn 0.2833 0.9496 -0.1340
vn 0.0717 0.9888 -0.1310
vn 0.1251 0.9384 -0.3222
vn -0.2013 0.8994 -0.3879
vn -0.0051 0.9851 -0.1719
vn 0.1521 0.9882 -0.0187
vn 0.1500 0.9778 -0.1465
vn -0.0576 0.9819 -0.1802
vn 0.0319 0.9755 -0.2175
vn -0.1551 0.9662 0.2055
vn 0.2468 0.9665 -0.0701
vn -0.1370 0.9792 0.1499
vn -0.1105 0.9802 0.1644
vn -0.1453 0.9670 -0.2092
vn -0.3526 0.9340 -0.0576
vn -0.4122 0.9087 -0.0655
vn -0.0173 0.9587 0.2837
vn -0.0078 0.9626 0.2707
vn -0.1481 0.9839 -0.1003
vn -0.1035 0.9864 0.1273
vn -0.3018 0.9463 0.1158
vn 0.0143 0.9482 0.3173
vn 0.1116 0.9497 0.2926
vn -0.0134 0.9937 -0.1106
vn -0.4347 0.8925 -0.1198
vn -0.3213 0.9337 -0.1581
vn -0.0054 0.9997 -0.0241
vn -0.0188 0.9970 -0.0752
vn 0.0775 0.9003 -0.4282
vn -0.1957 0.9692 0.1494
vn -0.0475 0.9843 -0.1698
vn 0.1076 0.9726 -0.2060
vn 0.0136 0.9638 0.2661
vn -0.0404 0.9587 0.2815
vn -0.2201 0.9068 0.3594
vn -0.2938 0.8235 0.4852
vn -0.1875 0.9490 0.2533
vn -0.0881 0.9862 -0.1402
vn -0.0926 0.9607 -0.2617
vn -0.0542 0.9748 -0.2164
vn -0.0443 0.9988 -0.0198
vn 0.1423 0.9655 0.2180
vn 0.2351 0.9611 0.1448
vn 0.0937 0.8266 -0.5549
vn 0.2035 0.9435 0.2613
vn -0.1498 0.9814 -0.1202
vn 0.1102 0.9795 -0.1684
vn 0.2018 0.9741 -0.1016
vn 0.1212 0.9913 -0.0508
vn 0.2446 0.9687 -0.0404
vn 0.0802 0.9490 0.3048
vn -0.2918 0.9470 -0.1343
vn -0.1205 0.9879 -0.0971
vn 0.2582 0.9253 0.2776
vn -0.0707 0.9967 -0.0390
vn -0.0786 0.9952 -0.0575
vn -0.0500 0.9987 0.0102
vn -0.0321 0.9989 -0.0340
vn 0.0834 0.8908 0.4466
vn 0.0836 0.8411 -0.5343
vn -0.0286 0.9992 -0.0254
vn 0.1189 0.9919 0.0441
vn 0.2236 0.9583 0.1778
vn -0.0245 0.9576 0.2870
vn 0.2587 0.9223 -0.2869
vn -0.0072 0.9997 -0.0212
vn 0.1827 0.9722 0.1462
vn 0.2201 0.9713 0.0902
vn -0.0007 1.0000 -0.0029
vn 0.2699 0.9514 0.1486
vn 0.1566 0.9875 -0.0173
vn 0.0013 0.9275 0.3739
vn -0.0355 0.9969 -0.0697
vn -0.1282 0.9895 -0.0666
vn -0.1418 0.9730 -0.1820
vn -0.0472 0.9971 0.0588
vn 0.0052 0.9677 0.2520
vn -0.4604 0.8842 -0.0779
vn 0.2193 0.9749 -0.0364
vn 0.2512 0.9613 0.1131
vn 0.1898 0.9801 0.0581
vn 0.1359 0.9893 0.0515
vn 0.2735 0.9609 -0.0435
vn -0.0484 0.9935 -0.1032
vn -0.0404 0.9979 -0.0502
vn 0.2654 0.9633 -0.0401
vn -0.0352 0.9587 0.2821
vn -0.0651 0.9419 0.3295
vn 0.3265 0.9446 -0.0338
vn 0.0201 0.9456 0.3247
vn 0.1578 0.9874 0.0121
vn -0.0193 0.9977 -0.0656
vn 0.2640 0.9635 -0.0434
vn -0.0091 0.9999 -0.0112
vn -0.1080 0.9849 0.1354
vn 0.1726 0.9801 0.0979
vn 0.1259 0.9919 -0.0192
vn -0.0193 0.9634 0.2674
s 1
f 91/1/1 144/2/2 287/3/3
f 251/4/4 43/5/5 191/6/6
f 3/7/7 258/8/8 85/9/9
f 88/10/10 145/11/11 286/12/12
f 240/13/13 37/14/14 93/15/15
f 190/16/16 112/17/17 252/18/18
f 115/19/19 156/20/20 278/21/21
f 203/22/22 204/23/23 242/24/24
f 66/25/25 273/26/26 164/27/27
f 264/28/28 61/29/29 117/30/30
f 267/31/31 33/32/32 89/33/33
f 129/34/34 170/35/35 276/36/36
f 262/37/37 46/38/38 177/39/39
f 44/40/40 283/41/41 201/42/42
f 182/43/43 85/9/9 258/8/8
f 19/44/44 232/45/45 153/46/46
f 198/47/47 200/48/48 75/49/49
f 10/50/50 248/51/51 94/52/52
f 272/53/53 21/54/54 105/55/55
f 78/56/56 237/57/57 212/58/58
f 155/59/59 104/60/60 263/61/61
f 231/62/62 41/63/63 97/64/64
f 111/65/65 152/66/66 281/67/67
f 222/68/68 101/69/69 228/70/70
f 81/71/71 228/70/70 224/72/72
f 124/73/73 161/74/74 12/75/75
f 81/71/71 226/76/76 225/77/77
f 218/78/78 220/79/79 80/80/80
f 34/81/81 266/82/82 172/83/83
f 80/80/80 229/84/84 221/85/85
f 79/86/86 234/87/87 216/88/88
f 35/89/89 239/90/90 208/91/91
f 79/86/86 232/45/45 217/92/92
f 263/61/61 48/93/93 175/94/94
f 285/95/95 21/54/54 133/96/96
f 163/97/97 145/11/11 271/98/98
f 78/56/56 235/99/99 213/100/100
f 272/53/53 49/101/101 163/97/97
f 206/102/102 208/91/91 77/103/103
f 146/104/104 212/58/58 50/105/105
f 207/106/106 209/107/107 77/103/103
f 167/108/108 93/15/15 37/14/14
f 76/109/109 243/110/110 204/23/23
f 147/111/111 200/48/48 51/112/112
f 76/109/109 241/113/113 205/114/114
f 239/90/90 52/115/115 207/106/106
f 110/116/116 132/117/117 282/118/118
f 211/119/119 149/120/120 235/99/99
f 199/121/121 201/42/42 75/49/49
f 236/122/122 53/123/123 211/119/119
f 74/124/124 249/125/125 196/126/126
f 54/127/127 233/128/128 216/88/88
f 195/129/129 197/130/130 74/124/124
f 179/131/131 92/132/132 36/133/133
f 73/134/134 252/18/18 192/135/135
f 151/136/136 188/137/137 55/138/138
f 73/134/134 250/139/139 193/140/140
f 195/129/129 112/17/17 56/141/141
f 186/142/142 188/137/137 72/143/143
f 47/144/144 242/24/24 204/23/23
f 187/145/145 189/146/146 72/143/143
f 233/128/128 57/147/147 215/148/148
f 71/149/149 258/8/8 184/150/150
f 58/151/151 230/152/152 220/79/79
f 183/153/153 185/154/154 71/149/149
f 178/155/155 180/156/156 70/157/157
f 59/158/158 263/61/61 176/159/159
f 70/157/157 259/160/160 181/161/161
f 183/153/153 116/162/162 60/163/163
f 69/164/164 264/28/28 176/159/159
f 142/165/165 168/166/166 46/38/38
f 175/94/94 176/159/159 263/61/61
f 69/164/164 262/37/37 177/39/39
f 230/152/152 61/29/29 219/167/167
f 170/35/35 172/83/83 68/168/168
f 158/169/169 224/72/72 62/170/170
f 68/168/168 265/171/171 173/172/172
f 166/173/173 168/166/166 67/174/174
f 159/175/175 164/27/27 63/176/176
f 167/108/108 169/177/177 67/174/174
f 266/82/82 64/178/178 171/179/179
f 65/180/180 226/76/76 223/181/181
f 163/97/97 164/27/27 272/53/53
f 66/25/25 271/98/98 165/182/182
f 223/181/181 121/183/183 65/180/180
f 25/184/184 273/26/26 121/183/183
f 158/169/169 173/172/172 265/171/171
f 18/185/185 270/186/186 120/187/187
f 24/188/188 264/28/28 117/30/30
f 154/189/189 185/154/154 256/190/190
f 19/44/44 243/110/110 108/191/191
f 111/65/65 113/192/192 23/193/193
f 259/160/160 20/194/194 155/59/59
f 247/195/195 54/127/127 197/130/130
f 22/196/196 246/197/197 109/198/198
f 159/175/175 133/96/96 21/54/54
f 238/199/199 50/105/105 209/107/107
f 91/1/1 93/15/15 9/200/200
f 273/26/26 65/180/180 121/183/183
f 130/201/201 221/85/85 229/84/84
f 210/202/202 105/55/55 237/57/57
f 82/203/203 139/204/204 251/4/4
f 261/205/205 60/163/163 116/162/162
f 171/179/179 172/83/83 266/82/82
f 38/206/206 249/125/125 134/207/207
f 143/208/208 135/209/209 242/24/24
f 268/210/210 63/176/176 169/177/177
f 18/185/185 229/84/84 157/211/211
f 122/212/212 192/135/135 252/18/18
f 11/213/213 245/214/214 147/111/111
f 265/171/171 25/184/184 158/169/169
f 130/201/201 120/187/187 266/82/82
f 269/215/215 67/174/174 168/166/166
f 156/20/20 154/189/189 256/190/190
f 180/156/156 86/216/216 260/217/217
f 42/218/218 257/219/219 184/150/150
f 152/66/66 150/220/220 247/195/195
f 151/136/136 193/140/140 250/139/139
f 26/221/221 251/4/4 192/135/135
f 196/126/126 94/52/52 248/51/51
f 148/222/222 146/104/104 238/199/199
f 147/111/111 205/114/114 241/113/113
f 131/223/223 108/191/191 239/90/90
f 241/113/113 11/213/213 147/111/111
f 203/22/22 95/224/224 241/113/113
f 131/223/223 217/92/92 232/45/45
f 143/208/208 189/146/146 253/225/225
f 92/132/132 134/207/207 249/125/125
f 52/115/115 238/199/199 207/106/106
f 119/226/226 160/227/227 275/228/228
f 288/229/229 8/230/230 137/231/231
f 284/232/232 22/196/196 148/222/222
f 219/167/167 157/211/211 229/84/84
f 27/233/233 244/234/234 199/121/121
f 173/172/172 118/235/235 276/36/36
f 162/236/236 161/74/74 65/180/180
f 105/55/55 106/237/237 237/57/57
f 45/238/238 289/239/239 141/240/240
f 128/241/241 213/100/100 235/99/99
f 119/226/226 164/27/27 273/26/26
f 123/242/242 199/121/121 245/214/214
f 30/243/243 261/205/205 126/244/244
f 255/245/245 57/147/147 113/192/192
f 279/246/246 58/151/151 114/247/247
f 277/248/248 61/29/29 174/249/249
f 118/235/235 224/72/72 228/70/70
f 115/19/19 176/159/159 264/28/28
f 171/179/179 160/227/227 265/171/171
f 197/130/130 110/116/116 282/118/118
f 186/142/142 153/46/46 57/147/147
f 114/247/247 220/79/79 231/62/62
f 255/245/245 55/138/138 188/137/137
f 254/250/250 72/143/143 188/137/137
f 183/153/153 156/20/20 256/190/190
f 209/107/107 106/237/237 285/95/95
f 283/41/41 53/123/123 198/47/47
f 110/116/116 216/88/88 234/87/87
f 137/231/231 218/78/78 288/229/229
f 246/197/197 51/112/112 200/48/48
f 56/141/141 247/195/195 195/129/129
f 17/251/251 228/70/70 101/69/69
f 287/3/3 35/89/89 91/1/1
f 202/252/252 148/222/222 52/115/115
f 179/131/131 132/117/117 259/160/160
f 146/104/104 109/198/198 236/122/122
f 189/146/146 103/253/253 280/254/254
f 253/225/225 6/255/255 143/208/208
f 214/256/256 104/60/60 234/87/87
f 205/114/114 107/257/257 284/232/232
f 83/258/258 140/259/259 244/234/234
f 245/214/214 75/49/49 200/48/48
f 138/260/260 184/150/150 258/8/8
f 207/106/106 208/91/91 239/90/90
f 243/110/110 52/115/115 108/191/191
f 211/119/119 212/58/58 236/122/122
f 281/67/67 56/141/141 190/16/16
f 252/18/18 10/50/50 122/212/212
f 274/261/261 12/75/75 161/74/74
f 281/67/67 55/138/138 111/65/65
f 84/262/262 141/240/240 289/239/239
f 250/139/139 15/263/263 151/136/136
f 215/148/148 216/88/88 233/128/128
f 267/31/31 34/81/81 172/83/83
f 278/21/21 60/163/163 178/155/155
f 126/244/244 116/162/162 14/264/264
f 248/51/51 74/124/124 196/126/126
f 194/265/265 132/117/117 36/133/133
f 278/21/21 59/158/158 115/19/19
f 287/3/3 48/93/93 214/256/256
f 219/167/167 220/79/79 230/152/152
f 244/234/234 44/40/40 201/42/42
f 221/85/85 90/266/266 288/229/229
f 275/228/228 64/178/178 166/173/173
f 20/194/194 234/87/87 104/60/60
f 91/1/1 208/91/91 240/13/13
f 269/215/215 9/200/200 93/15/15
f 277/248/248 46/38/38 102/267/267
f 206/102/102 133/96/96 37/14/14
f 242/24/24 39/268/268 203/22/22
f 103/253/253 204/23/23 243/110/110
f 275/228/228 63/176/176 119/226/226
f 286/12/12 49/101/101 210/202/202
f 237/57/57 50/105/105 212/58/58
f 5/269/269 260/217/217 86/216/216
f 7/270/270 271/98/98 145/11/11
f 175/94/94 144/2/2 262/37/37
f 166/173/173 120/187/187 270/186/186
f 223/181/181 224/72/72 227/271/271
f 274/261/261 66/25/25 165/182/182
f 191/6/6 192/135/135 251/4/4
f 275/228/228 67/174/174 169/177/177
f 276/36/36 68/168/168 173/172/172
f 174/249/249 177/39/39 277/248/248
f 15/263/263 254/250/250 151/136/136
f 178/155/155 181/161/161 278/21/21
f 260/217/217 70/157/157 180/156/156
f 182/43/43 185/154/154 279/246/246
f 280/254/254 72/143/143 189/146/146
f 190/16/16 193/140/140 281/67/67
f 282/118/118 74/124/124 197/130/130
f 283/41/41 75/49/49 201/42/42
f 284/232/232 76/109/109 205/114/114
f 96/272/272 165/182/182 40/273/273
f 285/95/95 77/103/103 209/107/107
f 210/202/202 213/100/100 286/12/12
f 214/256/256 217/92/92 287/3/3
f 288/229/229 80/80/80 221/85/85
f 28/274/274 289/239/239 225/77/77
f 222/68/68 225/77/77 289/239/239
f 279/246/246 13/275/275 125/276/276
f 150/220/220 113/192/192 233/128/128
f 24/188/188 230/152/152 154/189/189
f 155/59/59 181/161/161 259/160/160
f 89/33/33 90/266/266 267/31/31
f 125/276/276 182/43/43 279/246/246
f 102/267/267 157/211/211 277/248/248
f 194/265/265 92/132/132 249/125/125
f 118/235/235 129/34/34 276/36/36
f 9/200/200 262/37/37 144/2/2
f 103/253/253 153/46/46 280/254/254
f 16/277/277 235/99/99 149/120/120
f 187/145/145 87/278/278 253/225/225
f 198/47/47 109/198/198 246/197/197
f 191/6/6 99/279/279 250/139/139
f 100/280/280 149/120/120 283/41/41
f 97/64/64 114/247/247 231/62/62
f 215/148/148 153/46/46 232/45/45
f 124/73/73 225/77/77 226/76/76
f 127/281/281 187/145/145 254/250/250
f 37/14/14 268/210/210 167/108/108
f 183/153/153 184/150/150 257/219/219
f 136/282/282 165/182/182 271/98/98
f 98/283/283 116/162/162 257/219/219
f 102/267/267 168/166/166 270/186/186
f 158/169/169 121/183/183 227/271/271
f 32/284/284 286/12/12 213/100/100
f 91/1/1 9/200/200 144/2/2
f 251/4/4 139/204/204 43/5/5
f 3/7/7 138/260/260 258/8/8
f 88/10/10 7/270/270 145/11/11
f 240/13/13 206/102/102 37/14/14
f 190/16/16 56/141/141 112/17/17
f 115/19/19 24/188/188 156/20/20
f 203/22/22 76/109/109 204/23/23
f 66/25/25 162/236/236 273/26/26
f 264/28/28 174/249/249 61/29/29
f 267/31/31 170/35/35 33/32/32
f 129/34/34 33/32/32 170/35/35
f 262/37/37 142/165/165 46/38/38
f 44/40/40 100/280/280 283/41/41
f 182/43/43 29/285/285 85/9/9
f 19/44/44 131/223/223 232/45/45
f 198/47/47 246/197/197 200/48/48
f 10/50/50 112/17/17 248/51/51
f 272/53/53 159/175/175 21/54/54
f 78/56/56 210/202/202 237/57/57
f 155/59/59 20/194/194 104/60/60
f 231/62/62 218/78/78 41/63/63
f 111/65/65 23/193/193 152/66/66
f 222/68/68 45/238/238 101/69/69
f 81/71/71 222/68/68 228/70/70
f 124/73/73 226/76/76 161/74/74
f 81/71/71 223/181/181 226/76/76
f 218/78/78 231/62/62 220/79/79
f 34/81/81 130/201/201 266/82/82
f 80/80/80 219/167/167 229/84/84
f 79/86/86 214/256/256 234/87/87
f 35/89/89 131/223/223 239/90/90
f 79/86/86 215/148/148 232/45/45
f 263/61/61 104/60/60 48/93/93
f 285/95/95 106/237/237 21/54/54
f 163/97/97 49/101/101 145/11/11
f 78/56/56 211/119/119 235/99/99
f 272/53/53 105/55/55 49/101/101
f 206/102/102 240/13/13 208/91/91
f 146/104/104 236/122/122 212/58/58
f 207/106/106 238/199/199 209/107/107
f 167/108/108 269/215/215 93/15/15
f 76/109/109 202/252/252 243/110/110
f 147/111/111 245/214/214 200/48/48
f 76/109/109 203/22/22 241/113/113
f 239/90/90 108/191/191 52/115/115
f 110/116/116 20/194/194 132/117/117
f 211/119/119 53/123/123 149/120/120
f 199/121/121 244/234/234 201/42/42
f 236/122/122 109/198/198 53/123/123
f 74/124/124 194/265/265 249/125/125
f 54/127/127 150/220/220 233/128/128
f 195/129/129 247/195/195 197/130/130
f 179/131/131 260/217/217 92/132/132
f 73/134/134 190/16/16 252/18/18
f 151/136/136 254/250/250 188/137/137
f 73/134/134 191/6/6 250/139/139
f 195/129/129 248/51/51 112/17/17
f 186/142/142 255/245/245 188/137/137
f 47/144/144 143/208/208 242/24/24
f 187/145/145 253/225/225 189/146/146
f 233/128/128 113/192/192 57/147/147
f 71/149/149 182/43/43 258/8/8
f 58/151/151 154/189/189 230/152/152
f 183/153/153 256/190/190 185/154/154
f 178/155/155 261/205/205 180/156/156
f 59/158/158 155/59/59 263/61/61
f 70/157/157 179/131/131 259/160/160
f 183/153/153 257/219/219 116/162/162
f 69/164/164 174/249/249 264/28/28
f 142/165/165 269/215/215 168/166/166
f 175/94/94 69/164/164 176/159/159
f 69/164/164 175/94/94 262/37/37
f 230/152/152 117/30/30 61/29/29
f 170/35/35 267/31/31 172/83/83
f 158/169/169 227/271/271 224/72/72
f 68/168/168 171/179/179 265/171/171
f 166/173/173 270/186/186 168/166/166
f 159/175/175 272/53/53 164/27/27
f 167/108/108 268/210/210 169/177/177
f 266/82/82 120/187/187 64/178/178
f 65/180/180 161/74/74 226/76/76
f 163/97/97 66/25/25 164/27/27
f 66/25/25 163/97/97 271/98/98
f 223/181/181 227/271/271 121/183/183
f 25/184/184 119/226/226 273/26/26
f 158/169/169 62/170/170 173/172/172
f 18/185/185 102/267/267 270/186/186
f 24/188/188 115/19/19 264/28/28
f 154/189/189 58/151/151 185/154/154
f 19/44/44 103/253/253 243/110/110
f 111/65/65 255/245/245 113/192/192
f 259/160/160 132/117/117 20/194/194
f 247/195/195 150/220/220 54/127/127
f 22/196/196 107/257/257 246/197/197
f 159/175/175 268/210/210 133/96/96
f 238/199/199 146/104/104 50/105/105
f 91/1/1 240/13/13 93/15/15
f 273/26/26 162/236/236 65/180/180
f 130/201/201 34/81/81 221/85/85
f 210/202/202 49/101/101 105/55/55
f 82/203/203 1/286/286 139/204/204
f 261/205/205 178/155/155 60/163/163
f 171/179/179 68/168/168 172/83/83
f 38/206/206 196/126/126 249/125/125
f 143/208/208 6/255/255 135/209/209
f 268/210/210 159/175/175 63/176/176
f 18/185/185 130/201/201 229/84/84
f 122/212/212 26/221/221 192/135/135
f 11/213/213 123/242/242 245/214/214
f 265/171/171 160/227/227 25/184/184
f 130/201/201 18/185/185 120/187/187
f 269/215/215 167/108/108 67/174/174
f 156/20/20 24/188/188 154/189/189
f 180/156/156 30/243/243 86/216/216
f 42/218/218 98/283/283 257/219/219
f 152/66/66 23/193/193 150/220/220
f 151/136/136 55/138/138 193/140/140
f 26/221/221 82/203/203 251/4/4
f 196/126/126 38/206/206 94/52/52
f 148/222/222 22/196/196 146/104/104
f 147/111/111 51/112/112 205/114/114
f 131/223/223 19/44/44 108/191/191
f 241/113/113 95/224/224 11/213/213
f 203/22/22 39/268/268 95/224/224
f 131/223/223 35/89/89 217/92/92
f 143/208/208 47/144/144 189/146/146
f 92/132/132 5/269/269 134/207/207
f 52/115/115 148/222/222 238/199/199
f 119/226/226 25/184/184 160/227/227
f 288/229/229 90/266/266 8/230/230
f 284/232/232 107/257/257 22/196/196
f 219/167/167 61/29/29 157/211/211
f 27/233/233 83/258/258 244/234/234
f 173/172/172 62/170/170 118/235/235
f 162/236/236 274/261/261 161/74/74
f 105/55/55 21/54/54 106/237/237
f 45/238/238 222/68/68 289/239/239
f 128/241/241 32/284/284 213/100/100
f 119/226/226 63/176/176 164/27/27
f 123/242/242 27/233/233 199/121/121
f 30/243/243 180/156/156 261/205/205
f 255/245/245 186/142/142 57/147/147
f 279/246/246 185/154/154 58/151/151
f 277/248/248 157/211/211 61/29/29
f 118/235/235 62/170/170 224/72/72
f 115/19/19 59/158/158 176/159/159
f 171/179/179 64/178/178 160/227/227
f 197/130/130 54/127/127 110/116/116
f 186/142/142 280/254/254 153/46/46
f 114/247/247 58/151/151 220/79/79
f 255/245/245 111/65/65 55/138/138
f 254/250/250 187/145/145 72/143/143
f 183/153/153 60/163/163 156/20/20
f 209/107/107 50/105/105 106/237/237
f 283/41/41 149/120/120 53/123/123
f 110/116/116 54/127/127 216/88/88
f 137/231/231 41/63/63 218/78/78
f 246/197/197 107/257/257 51/112/112
f 56/141/141 152/66/66 247/195/195
f 17/251/251 118/235/235 228/70/70
f 287/3/3 217/92/92 35/89/89
f 202/252/252 284/232/232 148/222/222
f 179/131/131 36/133/133 132/117/117
f 146/104/104 22/196/196 109/198/198
f 189/146/146 47/144/144 103/253/253
f 253/225/225 87/278/278 6/255/255
f 214/256/256 48/93/93 104/60/60
f 205/114/114 51/112/112 107/257/257
f 83/258/258 2/287/287 140/259/259
f 245/214/214 199/121/121 75/49/49
f 138/260/260 42/218/218 184/150/150
f 207/106/106 77/103/103 208/91/91
f 243/110/110 202/252/252 52/115/115
f 211/119/119 78/56/56 212/58/58
f 281/67/67 152/66/66 56/141/141
f 252/18/18 112/17/17 10/50/50
f 274/261/261 96/272/272 12/75/75
f 281/67/67 193/140/140 55/138/138
f 84/262/262 4/288/288 141/240/240
f 250/139/139 99/279/279 15/263/263
f 215/148/148 79/86/86 216/88/88
f 267/31/31 90/266/266 34/81/81
f 278/21/21 156/20/20 60/163/163
f 126/244/244 261/205/205 116/162/162
f 248/51/51 195/129/129 74/124/124
f 194/265/265 282/118/118 132/117/117
f 278/21/21 181/161/161 59/158/158
f 287/3/3 144/2/2 48/93/93
f 219/167/167 80/80/80 220/79/79
f 244/234/234 140/259/259 44/40/40
f 221/85/85 34/81/81 90/266/266
f 275/228/228 160/227/227 64/178/178
f 20/194/194 110/116/116 234/87/87
f 91/1/1 35/89/89 208/91/91
f 269/215/215 142/165/165 9/200/200
f 277/248/248 177/39/39 46/38/38
f 206/102/102 285/95/95 133/96/96
f 242/24/24 135/209/209 39/268/268
f 103/253/253 47/144/144 204/23/23
f 275/228/228 169/177/177 63/176/176
f 286/12/12 145/11/11 49/101/101
f 237/57/57 106/237/237 50/105/105
f 5/269/269 92/132/132 260/217/217
f 7/270/270 136/282/282 271/98/98
f 175/94/94 48/93/93 144/2/2
f 166/173/173 64/178/178 120/187/187
f 223/181/181 81/71/71 224/72/72
f 274/261/261 162/236/236 66/25/25
f 191/6/6 73/134/134 192/135/135
f 275/228/228 166/173/173 67/174/174
f 276/36/36 170/35/35 68/168/168
f 174/249/249 69/164/164 177/39/39
f 15/263/263 127/281/281 254/250/250
f 178/155/155 70/157/157 181/161/161
f 260/217/217 179/131/131 70/157/157
f 182/43/43 71/149/149 185/154/154
f 280/254/254 186/142/142 72/143/143
f 190/16/16 73/134/134 193/140/140
f 282/118/118 194/265/265 74/124/124
f 283/41/41 198/47/47 75/49/49
f 284/232/232 202/252/252 76/109/109
f 96/272/272 274/261/261 165/182/182
f 285/95/95 206/102/102 77/103/103
f 210/202/202 78/56/56 213/100/100
f 214/256/256 79/86/86 217/92/92
f 288/229/229 218/78/78 80/80/80
f 28/274/274 84/262/262 289/239/239
f 222/68/68 81/71/71 225/77/77
f 279/246/246 114/247/247 13/275/275
f 150/220/220 23/193/193 113/192/192
f 24/188/188 117/30/30 230/152/152
f 155/59/59 59/158/158 181/161/161
f 89/33/33 8/230/230 90/266/266
f 125/276/276 29/285/285 182/43/43
f 102/267/267 18/185/185 157/211/211
f 194/265/265 36/133/133 92/132/132
f 118/235/235 17/251/251 129/34/34
f 9/200/200 142/165/165 262/37/37
f 103/253/253 19/44/44 153/46/46
f 16/277/277 128/241/241 235/99/99
f 187/145/145 31/289/289 87/278/278
f 198/47/47 53/123/123 109/198/198
f 191/6/6 43/5/5 99/279/279
f 100/280/280 16/277/277 149/120/120
f 97/64/64 13/275/275 114/247/247
f 215/148/148 57/147/147 153/46/46
f 124/73/73 28/274/274 225/77/77
f 127/281/281 31/289/289 187/145/145
f 37/14/14 133/96/96 268/210/210
f 183/153/153 71/149/149 184/150/150
f 136/282/282 40/273/273 165/182/182
f 98/283/283 14/264/264 116/162/162
f 102/267/267 46/38/38 168/166/166
f 158/169/169 25/184/184 121/183/183
f 32/284/284 88/10/10 286/12/12
